{
  "type": "service_account",
  "project_id": "tubics",
  "private_key_id": "450e61f489bf1b410fe788169497b4b67b4bb20c",
  "private_key": "-----BEGIN PRIVATE KEY-----\nMIIEvQIBADANBgkqhkiG9w0BAQEFAASCBKcwggSjAgEAAoIBAQCjOXhLpb1lVI1p\nhij1jHk0voeLqa7etsvphhkD2KYEh3Wj7o+aO33TQoVP+PUZeyUJTtzK2+s8HGNx\nx2niTYTsWxOLlaYG47QqOYP27AgLIP9bCCZ+TgFEkCsm7lYwcWBm3QzBY/5TjTbB\njt68V6ESAhRc5aDLSplCUJDCd9XaA6wzWV6ItdwInngcGIg1ITGVQqQRZoTF1zBx\nG1V1YoPiLtuCq2IQzhgz96T15lZKgAC5eglKw+pGXIe449rqIdEei7L/vyMirDze\naUd6ArVks6vr6BjGVV2Vue6BUmtX0twaWz++KRaURvoXSC5tpRVghtNYhZ8rmkDm\nrRqLShu3AgMBAAECggEAAY1/UQTosrZWhe2MtLp1oj66G4vAPrsEQrEe2WMiqWfW\nt3Jr2R6rHSNmen4xD+FBz389aTlwSf3V2Wb5UkUA7RbK8jBAV2Z+1h3CPw7ShKX+\n+cIZHrRLrJ2QPtHUIplPJ/WzuDblGHDom0rx9vUezN9R5du/W93WezhW7G5uwjd7\nzzdj7zCGYVGEFxB9cbsWTTJOqDW+YOwfjTxeWiUgZ6PpWBKmmC4Vdo8QTEUnpR3l\nQ/8ho+KSOhWXSonRW53v0S6er62byu9zZJdd/EICi4FFQzLQzhYDA5S9jatYdnuh\nVdTrGbRPBdiSOnsXqh+chfT4c8PLNN43jlUq+LX+bQKBgQDm0d0dJmgwB4eBUUWe\nOCPXKt8tn7uUeQRBfS0dGJ7hr39CNiSD0L7Ko5kIZXHYe8J4DaD4MDyeaUwdLPBD\n0COPnoO0ErwclUNMPeYVjYmU8ga0jUPoNjU89V1JU9o4j1XLiLJllMM98E5L03Vn\nGe4D2jx7cvmvlqOzIhUgTCuGnQKBgQC1B9z0tZq4R1Muo/BOansG8UIOkr1VBBgr\no19MhpJyaF84NG9bj2HHl/SDEKx3wQpO+XxwZd0baAnfiJXm37uOd6zwilEavU3+\naflNcdG4rLjNAOodeR8JImnHP4e5QrIPw2wPM96uiU133Cp+8cCiOrz09dvHHgWu\nc9mvcSUxYwKBgQDTE1krngKq4UfGNyb90ALecgMTOr4TwTLmHG1T7T7lzVIHn3F2\n5T6EGmUIa5RXTp2AoZ3xOFNG3a3QBFdW/BB49pEj6/n//XNEVlqAnSUSgt0k4QYX\nZPL8YrjDJJ4rGNBxRvk0sXx1uLow1xfGh8zD0x96GKNCMfRTDLjbByzKdQKBgCq5\nV1ldfs1c7/HC+RTYpn5l8+wSj6J/2+B4pyYdYHSl00slfN6EAVSktS01gy6kHXW0\nBb1VHRC5xhK+XnpldRNThTojuq5v3PddNVwkr5VBFkAzpg0cp8l1GLfQc4yyg+ma\nemdAG57fgqv2BwV8srTW3f+GAr+Eg1y/tLFmJ5v3AoGAQMX/8GCs3pqnSvVsl1MN\nbBiaEg5twzkhSWaC5Gb1yWgdq1vWO5HituCXSvW879TT3wshW0/l61IkFkDvye/2\nWdcpiFsn/SEX1UxYm8HB0HDTpxW6RgyIe9PFyYA7O4Li3S+14C77q+dXy0bMwgdT\nukH1stAW08r8aUpfpXUgYPY=\n-----END PRIVATE KEY-----\n",
  "client_email": "firebase-adminsdk-6z6nf@tubics.iam.gserviceaccount.com",
  "client_id": "103837413172671560170",
  "auth_uri": "https://accounts.google.com/o/oauth2/auth",
  "token_uri": "https://oauth2.googleapis.com/token",
  "auth_provider_x509_cert_url": "https://www.googleapis.com/oauth2/v1/certs",
  "client_x509_cert_url": "https://www.googleapis.com/robot/v1/metadata/x509/firebase-adminsdk-6z6nf%40tubics.iam.gserviceaccount.com"
}
